Model Classifier for Binary Classification • alookr
…
split_by() splits the data.frame or tbl_df into a training set and a test set.

Split dataset with split_by()

The split_df class is created, which contains the split information and criteria to separate the training and the test set.

library(alookr)
library(dplyr)

# Generate data for the example
sb <- ISLR::Default %>%
  split_by(default, seed = 6534)

sb
#> # A tibble: 10,000 x 5
#> # Groups:   split_flag [2]
#>    default student balance income split_flag
#>    <fct>   <fct>     <dbl>  <dbl> <chr>     
#>  1 No      No         730. 44362. train     
#>  2 No      Yes        817. 12106. train     
#>  3 No      No        1074. 31767. train     
#>  4 No      No         529. 35704. train     
#>  5 No      No         786. 38463. test      
#>  6 No      Yes        920.  7492. train     
#>  7 No      No         826. 24905. test      
#>  8 No      Yes        809. 17600. train     
#>  9 No      No        1161. 37469. train     
#> 10 No      No           0  29275. train     
#> # … with 9,990 more rows
…
