Split Data into Train and Test Set — split_by • alookr
…
# Generate data for the example
sb <- ISLR::Default %>%
  split_by(default)

sb
#> # A tibble: 10,000 × 5
#> # Groups:   split_flag [2]
#>    default student balance income split_flag
#>    <fct>   <fct>     <dbl>  <dbl> <chr>     
#>  1 No      No         730. 44362. train     
#>  2 No      Yes        817. 12106. train     
#>  3 No      No        1074. 31767. train     
#>  4 No      No         529. 35704. train     
#>  5 No      No         786. 38463. train     
#>  6 No      Yes        920.  7492. train     
#>  7 No      No         826. 24905. test      
#>  8 No      Yes        809. 17600. train     
#>  9 No      No        1161. 37469. test      
#> 10 No      No           0  29275. test      
#> # ℹ 9,990 more rows
…
